Date : 30/09/2016 15:29:00
 MethodName : GetPassengers
 Parameters : 71c9a796-961f-45cd-bdb8-781e91312771
 ErrorCode :200
 ErrorMessage : Object reference not set to an instance of an object.
 ErrorStackTrace :    at tikAEROWebCheckinAPI.WebServices.CheckinService.GetFlightInformation(String strBookingSegmentId) in c:\Bravo\tikAEROWebCheckinAPI\tikAEROWebCheckinAPI\tikAEROWebCheckinAPI\WebServices\CheckinService.asmx.cs:line 2353
   at tikAEROWebCheckinAPI.WebServices.CheckinService.GetPassengers(String strBookingSegmentId) in c:\Bravo\tikAEROWebCheckinAPI\tikAEROWebCheckinAPI\tikAEROWebCheckinAPI\WebServices\CheckinService.asmx.cs:line 173


Date : 30/09/2016 15:29:09
 MethodName : GetBoardingPasses
 Parameters : strBookingSegmentId : 71c9a796-961f-45cd-bdb8-781e91312771:::passengerId :8e4cc000-d7dc-4caf-8dcc-2026a211f653|62b1bc4a-dd9d-4795-8dc4-7280a02aa236||
 ErrorCode :502
 ErrorMessage : Required check in before get boarding pass
 ErrorStackTrace : 


Date : 30/09/2016 15:32:47
 MethodName : Commit
 Parameters : strBookingSegmentId : 71c9a796-961f-45cd-bdb8-781e91312771:::passengerId :8e4cc000-d7dc-4caf-8dcc-2026a211f653|62b1bc4a-dd9d-4795-8dc4-7280a02aa236|booking id : 173c6182-2bef-4a7d-b82f-e6d9dbd369ae | pax id : 8e4cc000-d7dc-4caf-8dcc-2026a211f653 | seat number : 14E|booking id : 173c6182-2bef-4a7d-b82f-e6d9dbd369ae | pax id : 62b1bc4a-dd9d-4795-8dc4-7280a02aa236 | seat number : 14E|
 ErrorCode :
 ErrorMessage : Log for commit
 ErrorStackTrace : 


Date : 30/09/2016 15:37:56
 MethodName : Commit
 Parameters : strBookingSegmentId : 58755791-a095-4d5d-8b37-97dfb118e935:::passengerId :847f2fa3-c275-418d-8e59-d6603dc2fbd7|7c647741-d577-4642-9cdb-99d34f10175a|booking id : ff227a01-cc56-43c0-91d8-6dc47f2fbb27 | pax id : 847f2fa3-c275-418d-8e59-d6603dc2fbd7 | seat number : 14F|booking id : ff227a01-cc56-43c0-91d8-6dc47f2fbb27 | pax id : 7c647741-d577-4642-9cdb-99d34f10175a | seat number : 14G|
 ErrorCode :
 ErrorMessage : Log for commit
 ErrorStackTrace : 


